module codeberg.org/jacqueline/please

go 1.20

require github.com/Azure/azure-sdk-for-go/sdk/azidentity v1.3.0

require (
	github.com/Azure/azure-sdk-for-go/sdk/azcore v1.6.0
	github.com/Azure/azure-sdk-for-go/sdk/internal v1.3.0 // indirect
	github.com/Azure/azure-sdk-for-go/sdk/resourcemanager/resources/armresources v1.1.1
	github.com/AzureAD/microsoft-authentication-library-for-go v1.0.0 // indirect
	github.com/golang-jwt/jwt/v4 v4.5.0 // indirect
	github.com/google/uuid v1.3.0 // indirect
	github.com/kylelemons/godebug v1.1.0 // indirect
	github.com/pkg/browser v0.0.0-20210911075715-681adbf594b8 // indirect
	github.com/spf13/pflag v1.0.5
	golang.org/x/crypto v0.9.0 // indirect
	golang.org/x/net v0.10.0 // indirect
	golang.org/x/sys v0.8.0 // indirect
	golang.org/x/text v0.9.0 // indirect
)
